%YAML 1.1
%TAG !u! tag:unity3d.com,2011:
--- !u!114 &11400000
MonoBehaviour:
  m_ObjectHideFlags: 0
  m_CorrespondingSourceObject: {fileID: 0}
  m_PrefabInstance: {fileID: 0}
  m_PrefabAsset: {fileID: 0}
  m_GameObject: {fileID: 0}
  m_Enabled: 1
  m_EditorHideFlags: 0
  m_Script: {fileID: 11500000, guid: a301924e49f97564f8aeae30daf75723, type: 3}
  m_Name: DefaultTile
  m_EditorClassIdentifier: 
  className: Tile
  texture: {fileID: 2800000, guid: 83abf70069109c4498f428462ed9e42b, type: 3}
  blocksMovement: 0
